set terminal pdf color solid
set output "naive.pdf"

set xlabel "L"
set ylabel "time/s"
set y2tics

set y2label "perfomance: billion/s"
set title "execution time and performance"
#set yrange [0:4]
set key left


p 'naive.txt' u 1:2 w lp title "execution time",  'naive.txt' u 1:3 w lp  title " performance"


